<?xml version="1.0" encoding="utf-8"?>
<!-- Generator: Adobe Illustrator 21.0.0, SVG Export Plug-In . SVG Version: 6.00 Build 0)  -->
<svg version="1.1"
	 id="Слой_1" xmlns:cc="http://creativecommons.org/ns#" xmlns:dc="http://purl.org/dc/elements/1.1/" xmlns:inkscape="http://www.inkscape.org/namespaces/inkscape" xmlns:rdf="http://www.w3.org/1999/02/22-rdf-syntax-ns#" xmlns:sodipodi="http://sodipodi.sourceforge.net/DTD/sodipodi-0.dtd" xmlns:svg="http://www.w3.org/2000/svg"
	 xmlns="http://www.w3.org/2000/svg" xmlns:xlink="http://www.w3.org/1999/xlink" x="0px" y="0px" viewBox="0 0 278.2 314"
	 style="enable-background:new 0 0 278.2 314;" xml:space="preserve">
<style type="text/css">
	.st0{fill:#FFFFFF;}
</style>
<g transform="translate(0,-952.36218)">
	<path class="st0" d="M138.4,952.5c-1.4,0-2.9,0.7-3.9,1.8l-132,114.1c-1.4,1.4-2.5,3.2-2.5,5.4v185.5c0,3.9,3.2,7.1,7.1,7.1h264
		c3.9,0,7.1-3.2,7.1-7.1v-185.5c0-2.1-1.1-3.9-2.5-5.4l-18.9-16.4v-60.3c0-3.9-3.2-7.1-7.1-7.1h-49.9c-3.9,0-7.1,3.2-7.1,7.1v4.6
		l-48.9-42.1C142.3,952.8,140.5,952.1,138.4,952.5z M139.1,968.9l56,48.5c2.9,2.5,7.5,2.1,10-0.7c1.1-1.4,1.8-2.9,1.8-4.6v-13.2
		h35.7v56.4c0,2.1,1.1,3.9,2.5,5.4l18.9,16.4v175.1H14.3v-175.1L139.1,968.9z M139.1,1091.6c-32.1,0-61.7,12.8-83.5,33.2
		c-2.9,2.9-2.9,7.1-0.4,10c2.5,2.9,7.1,2.9,10,0.4l0,0c19.3-18.2,44.9-29.3,73.5-29.3s54.2,11.1,73.5,29.3c2.9,2.9,7.5,2.5,10-0.4
		c2.5-2.9,2.5-7.5-0.4-10l0,0C200.8,1104.1,171.2,1091.6,139.1,1091.6z M139.1,1123.7c-23.9,0-46,9.6-62.1,25
		c-2.9,2.9-2.9,7.1-0.4,10c2.9,2.9,7.1,2.9,10,0.4l0,0c13.6-13.2,31.7-21.4,52.1-21.4s38.5,8.2,52.1,21.4c2.9,2.9,7.5,2.9,10,0
		c2.9-2.9,2.9-7.5,0-10l0,0C185.1,1133.3,163,1123.7,139.1,1123.7z M139.1,1155.8c-15.7,0-30.3,6.1-40.7,16.4c-2.9,2.9-2.9,7.1,0,10
		l35.7,35.7c2.9,2.9,7.1,2.9,10,0l35.7-35.7c2.9-2.9,2.9-7.1,0-10C169.4,1161.5,154.8,1155.8,139.1,1155.8z M139.1,1170
		c9.3,0,17.5,3.6,24.6,8.2l-24.6,24.6l-24.6-24.6C121.6,1173.3,129.8,1170,139.1,1170z"/>
</g>
</svg>
