<?xml version="1.0" encoding="utf-8"?>
<!-- Generator: Adobe Illustrator 21.0.0, SVG Export Plug-In . SVG Version: 6.00 Build 0)  -->
<svg version="1.1" id="Слой_1" xmlns="http://www.w3.org/2000/svg" xmlns:xlink="http://www.w3.org/1999/xlink" x="0px" y="0px"
	 viewBox="0 0 123 107" style="enable-background:new 0 0 123 107;" xml:space="preserve">
<style type="text/css">
	.st0{fill:#FFFFFF;}
</style>
<g>
	<g>
		<g>
			<path class="st0" d="M114.9,37.6H66.4c-1,0-1.9,0.8-1.9,1.9c0,1,0.8,1.9,1.9,1.9H113v61.9H11.7V41.3h12.8c1,0,1.9-0.8,1.9-1.9
				s-0.8-1.9-1.9-1.9H9.8c-1,0-1.9,0.8-1.9,1.9v65.7c0,1,0.8,1.9,1.9,1.9h105.1c1,0,1.9-0.8,1.9-1.9V39.4
				C116.8,38.4,115.9,37.6,114.9,37.6z"/>
		</g>
	</g>
	<g>
		<g>
			<g>
				<path class="st0" d="M29.1,54.6c0-1,0.2-2,0.5-3c0.3-1-0.3-2-1.2-2.3c-1-0.3-2,0.3-2.3,1.2c-0.4,1.4-0.6,2.8-0.6,4.1
					c0,1.5,0.2,3,0.7,4.4c0.3,0.8,1,1.3,1.8,1.3c0.2,0,0.4,0,0.6-0.1c1-0.3,1.5-1.4,1.2-2.4C29.3,56.8,29.1,55.7,29.1,54.6z"/>
				<path class="st0" d="M39.1,65.2c-2.4-0.3-4.3-0.8-6-2.1c-0.8-0.7-2-0.5-2.6,0.3c-0.7,0.8-0.5,2,0.3,2.6c2.5,2,5.3,2.6,7.9,2.9
					c0.1,0,0.2,0,0.2,0c0.9,0,1.7-0.7,1.9-1.7C40.9,66.3,40.2,65.3,39.1,65.2z"/>
				<path class="st0" d="M59.3,90.5c-1,0-1.9,0.8-1.9,1.9v0.1c0,2.3-0.1,4.8-0.3,7.2c-0.1,1,0.7,1.9,1.7,2c0.1,0,0.1,0,0.2,0
					c1,0,1.8-0.7,1.9-1.7c0.2-2.6,0.4-5.1,0.4-7.6v-0.1C61.2,91.3,60.4,90.5,59.3,90.5z"/>
				<path class="st0" d="M54.1,69.9c-2.2-1.7-4.6-2.9-7.3-3.6c-1-0.3-2,0.4-2.3,1.4c-0.3,1,0.4,2,1.4,2.3c2.3,0.6,4.1,1.5,5.9,2.9
					c0,0,0.1,0.1,0.1,0.1c0.3,0.3,0.7,0.4,1.1,0.4c0.6,0,1.1-0.3,1.5-0.7C55.1,71.7,54.9,70.5,54.1,69.9z"/>
				<path class="st0" d="M58.9,86.7c0.1,0,0.2,0,0.2,0c1-0.1,1.8-1.1,1.6-2.1c-0.4-2.9-1-5.5-1.8-7.7c-0.4-1-1.5-1.5-2.4-1.1
					c-1,0.4-1.5,1.5-1.1,2.4c0.7,1.9,1.3,4.2,1.6,6.9C57.1,86,57.9,86.7,58.9,86.7z"/>
			</g>
		</g>
	</g>
	<g>
		<g>
			<path class="st0" d="M115.6,64c-1-0.4-24-9.8-34.2,4.4C72.1,81.5,57.9,88,46,84.6c-3.9-1.1-7.3-2.8-10.7-4.4
				c-7.7-3.7-15.1-7.3-26.2-3.1c-1,0.4-1.5,1.4-1.1,2.4c0.4,1,1.4,1.5,2.4,1.1c9.6-3.6,15.9-0.6,23.2,3c3.5,1.7,7,3.4,11.3,4.6
				c2.4,0.7,4.9,1,7.5,1c11.5,0,23.7-6.9,32.1-18.6c8.4-11.8,29.5-3.2,29.7-3.1c1,0.4,2.1-0.1,2.5-1C117,65.5,116.6,64.4,115.6,64z"
				/>
		</g>
	</g>
	<g>
		<g>
			<path class="st0" d="M115.1,51.6c-1-0.3-24.9-6.5-45.9,1.1c-5.7,2.1-10.5,3.4-14.6,3.9c-1,0.1-1.7,1.1-1.6,2.1
				c0.1,0.9,0.9,1.6,1.9,1.6c0.1,0,0.2,0,0.3,0c4.4-0.6,9.4-1.9,15.4-4.1c19.8-7.2,43.4-1.1,43.7-1c1,0.3,2-0.3,2.3-1.3
				C116.7,52.9,116.1,51.8,115.1,51.6z"/>
		</g>
	</g>
	<g>
		<g>
			<g>
				<path class="st0" d="M86,84.3c-1.9,1.6-3.8,3.5-5.6,5.4c-0.7,0.8-0.6,2,0.2,2.6c0.4,0.3,0.8,0.5,1.2,0.5c0.5,0,1-0.2,1.4-0.6
					c1.6-1.8,3.4-3.5,5.2-5c0.8-0.7,0.9-1.8,0.2-2.6C88,83.7,86.8,83.6,86,84.3z"/>
				<path class="st0" d="M78.3,95.3c-0.9-0.6-2-0.4-2.6,0.5c-1.4,2.1-2.7,4.3-3.9,6.6c-0.5,0.9-0.1,2.1,0.8,2.5
					c0.3,0.1,0.6,0.2,0.9,0.2c0.7,0,1.3-0.4,1.7-1c1.2-2.2,2.4-4.3,3.7-6.3C79.4,97.1,79.2,95.9,78.3,95.3z"/>
				<path class="st0" d="M99.5,76.5c-2.4,0.9-4.8,2-7.1,3.3c-0.9,0.5-1.2,1.7-0.7,2.6c0.3,0.6,1,0.9,1.6,0.9c0.3,0,0.6-0.1,0.9-0.3
					c2.1-1.2,4.3-2.2,6.5-3c1-0.4,1.5-1.4,1.1-2.4C101.6,76.6,100.5,76.1,99.5,76.5z"/>
				<path class="st0" d="M115.1,74.2c-0.1,0-1-0.1-2.5-0.1c-1.8,0-3.6,0.2-5.5,0.4c-1,0.2-1.7,1.1-1.6,2.1c0.1,0.9,0.9,1.6,1.9,1.6
					c0.1,0,0.2,0,0.3,0c1.7-0.3,3.4-0.4,5-0.4c1.3,0,2,0.1,2,0.1c1,0.1,2-0.6,2.1-1.6C116.9,75.3,116.2,74.3,115.1,74.2z"/>
			</g>
		</g>
	</g>
	<g>
		<g>
			<g>
				<path class="st0" d="M45.4,0C31,0,19.2,11.8,19.2,26.3c0,14,23.8,43.1,24.8,44.4c0.4,0.4,0.9,0.7,1.5,0.7s1.1-0.3,1.5-0.7
					c1-1.2,24.8-30.4,24.8-44.4C71.7,11.8,59.9,0,45.4,0z M45.4,66.5C38,57.1,22.9,36.1,22.9,26.3C22.9,13.9,33,3.8,45.4,3.8
					S68,13.9,68,26.3C68,37.1,50.6,59.9,45.4,66.5z"/>
				<path class="st0" d="M45.4,9.4c-8.3,0-15,6.7-15,15s6.7,15,15,15c8.3,0,15-6.7,15-15S53.7,9.4,45.4,9.4z M45.4,35.7
					c-6.2,0-11.3-5.1-11.3-11.3s5.1-11.3,11.3-11.3s11.3,5.1,11.3,11.3S51.7,35.7,45.4,35.7z"/>
			</g>
		</g>
	</g>
</g>
</svg>
