<svg xmlns="http://www.w3.org/2000/svg" width="21" height="15" viewBox="0 0 21 15">
  <metadata><?xpacket begin="﻿" id="W5M0MpCehiHzreSzNTczkc9d"?>
<x:xmpmeta xmlns:x="adobe:ns:meta/" x:xmptk="Adobe XMP Core 5.6-c138 79.159824, 2016/09/14-01:09:01        ">
   <rdf:RDF xmlns:rdf="http://www.w3.org/1999/02/22-rdf-syntax-ns#">
      <rdf:Description rdf:about=""/>
   </rdf:RDF>
</x:xmpmeta>
                                                                                                    
                                                                                                    
                                                                                                    
                                                                                                    
                                                                                                    
                                                                                                    
                                                                                                    
                                                                                                    
                                                                                                    
                                                                                                    
                                                                                                    
                                                                                                    
                                                                                                    
                                                                                                    
                                                                                                    
                                                                                                    
                                                                                                    
                                                                                                    
                                                                                                    
                                                                                                    
                           
<?xpacket end="w"?></metadata>
<defs>
    <style>
      .cls-1 {
        fill: #fff;
        fill-rule: evenodd;
      }
    </style>
  </defs>
  <path id="Forma_1" data-name="Forma 1" class="cls-1" d="M772.737,888.994v-9.08a0.906,0.906,0,0,1,.9-0.914h8.93a0.907,0.907,0,0,1,.9.914v9.08a0.3,0.3,0,0,1-.3.3H773.036A0.3,0.3,0,0,1,772.737,888.994Zm7.211,3.111a1.865,1.865,0,1,1-1.864-1.895A1.88,1.88,0,0,1,779.948,892.105Zm-0.932,0a0.933,0.933,0,1,0-.932.947A0.94,0.94,0,0,0,779.016,892.105Zm-2.538-1.895H772.3a0.3,0.3,0,0,0-.3.3v0.924a0.3,0.3,0,0,0,.3.3h3.349A2.514,2.514,0,0,1,776.478,890.21Zm13.226,1.895a1.865,1.865,0,1,1-1.865-1.895A1.88,1.88,0,0,1,789.7,892.105Zm-0.933,0a0.932,0.932,0,1,0-.932.947A0.939,0.939,0,0,0,788.771,892.105Zm4.229-1.59v0.924a0.3,0.3,0,0,1-.3.3h-2.426a2.455,2.455,0,0,0-4.87,0h-4.885a2.518,2.518,0,0,0-.829-1.533h4.632V881.5a0.6,0.6,0,0,1,.6-0.609h2.829a2.388,2.388,0,0,1,1.987,1.073l1.823,2.745a2.463,2.463,0,0,1,.411,1.363v4.139H792.7A0.3,0.3,0,0,1,793,890.515Zm-3.04-5.737-1.458-2.106a0.3,0.3,0,0,0-.245-0.129h-2.275a0.3,0.3,0,0,0-.3.3v2.106a0.3,0.3,0,0,0,.3.3h3.733A0.3,0.3,0,0,0,789.96,884.778Z" transform="translate(-772 -879)"/>
</svg>
