<svg xmlns="http://www.w3.org/2000/svg" width="58" height="66" viewBox="0 0 58 66">
  <metadata><?xpacket begin="﻿" id="W5M0MpCehiHzreSzNTczkc9d"?>
<x:xmpmeta xmlns:x="adobe:ns:meta/" x:xmptk="Adobe XMP Core 5.6-c138 79.159824, 2016/09/14-01:09:01        ">
   <rdf:RDF xmlns:rdf="http://www.w3.org/1999/02/22-rdf-syntax-ns#">
      <rdf:Description rdf:about=""/>
   </rdf:RDF>
</x:xmpmeta>
                                                                                                    
                                                                                                    
                                                                                                    
                                                                                                    
                                                                                                    
                                                                                                    
                                                                                                    
                                                                                                    
                                                                                                    
                                                                                                    
                                                                                                    
                                                                                                    
                                                                                                    
                                                                                                    
                                                                                                    
                                                                                                    
                                                                                                    
                                                                                                    
                                                                                                    
                                                                                                    
                           
<?xpacket end="w"?></metadata>
<defs>
    <style>
      .cls-1 {
        fill: #629f4f;
        fill-rule: evenodd;
      }
    </style>
  </defs>
  <path id="Forma_1" data-name="Forma 1" class="cls-1" d="M1422.06,1742H1418a3.894,3.894,0,0,0-3.88,3.9v48.92a3.884,3.884,0,0,0,3.81,3.89,7.373,7.373,0,0,1-14.61-1.43v-18.65a1.66,1.66,0,1,0-3.32,0v18.65a10.687,10.687,0,0,0,21.28,1.44h0.79a3.9,3.9,0,0,0,3.89-3.9V1745.9A3.911,3.911,0,0,0,1422.06,1742Zm32.64,6.19h-27.11v47.65h27.11a3.3,3.3,0,0,0,3.3-3.3v-41.05A3.3,3.3,0,0,0,1454.7,1748.19Zm-16.81,42.77h-5.76v-5.77h5.76v5.77Zm0-8.04h-5.76v-5.78h5.76v5.78Zm0.04-7.99h-5.76v-5.78h5.76v5.78Zm8.2,16.03h-5.77v-5.77h5.77v5.77Zm0-8.04h-5.77v-5.78h5.77v5.78Zm0.04-7.99h-5.77v-5.78h5.77v5.78Zm8.19,16.03h-5.76v-5.77h5.76v5.77Zm0-8.04h-5.76v-5.78h5.76v5.78Zm0.04-7.99h-5.76v-5.78h5.76v5.78Zm0.02-17.09h-23.25v-6.81h23.25v6.81Zm-44.05,38h2.02v-47.65h-2.02a3.3,3.3,0,0,0-3.29,3.3v41.05A3.3,3.3,0,0,0,1410.37,1795.84Z" transform="translate(-1400 -1742)"/>
</svg>
