<svg xmlns="http://www.w3.org/2000/svg" width="29" height="15" viewBox="0 0 29 15">
  <metadata><?xpacket begin="﻿" id="W5M0MpCehiHzreSzNTczkc9d"?>
<x:xmpmeta xmlns:x="adobe:ns:meta/" x:xmptk="Adobe XMP Core 5.6-c138 79.159824, 2016/09/14-01:09:01        ">
   <rdf:RDF xmlns:rdf="http://www.w3.org/1999/02/22-rdf-syntax-ns#">
      <rdf:Description rdf:about=""/>
   </rdf:RDF>
</x:xmpmeta>
                                                                                                    
                                                                                                    
                                                                                                    
                                                                                                    
                                                                                                    
                                                                                                    
                                                                                                    
                                                                                                    
                                                                                                    
                                                                                                    
                                                                                                    
                                                                                                    
                                                                                                    
                                                                                                    
                                                                                                    
                                                                                                    
                                                                                                    
                                                                                                    
                                                                                                    
                                                                                                    
                           
<?xpacket end="w"?></metadata>
<defs>
    <style>
      .cls-1 {
        fill: #323232;
        fill-rule: evenodd;
      }
    </style>
  </defs>
  <path class="cls-1" d="M369.959,1820.54a37.241,37.241,0,0,1,2.84,2.61,7.518,7.518,0,0,1,1.018,1.34,0.946,0.946,0,0,1-.643,1.5l-4.224-.01a3.393,3.393,0,0,1-2.69-.99c-0.585-.55-1.127-1.13-1.689-1.69a3.878,3.878,0,0,0-.761-0.62,0.923,0.923,0,0,0-1.407.31,3.782,3.782,0,0,0-.444,1.8c-0.046.91-.346,1.15-1.346,1.19a11.617,11.617,0,0,1-6.045-1.18,13.083,13.083,0,0,1-4.068-3.48,46.033,46.033,0,0,1-5.354-8.73c-0.337-.68-0.09-1.05.74-1.07q2.067-.03,4.136,0a1.206,1.206,0,0,1,1.147.79,22.746,22.746,0,0,0,2.8,4.74,4.174,4.174,0,0,0,1.059,1.07,0.663,0.663,0,0,0,1.093-.3,2.985,2.985,0,0,0,.243-0.99,13.5,13.5,0,0,0-.068-3.49,1.5,1.5,0,0,0-1.355-1.33c-0.4-.07-0.344-0.21-0.148-0.42a1.577,1.577,0,0,1,1.295-.59h4.775a1.072,1.072,0,0,1,1.022,1.14l0,4.84a1.368,1.368,0,0,0,.673,1.24,0.956,0.956,0,0,0,.954-0.43,14.734,14.734,0,0,0,2.688-3.77c0.323-.6.6-1.22,0.871-1.84a1.018,1.018,0,0,1,1.08-.67h4.6a2.734,2.734,0,0,1,.406.02c0.774,0.12.987,0.43,0.747,1.12a10.4,10.4,0,0,1-1.827,2.9c-0.766.96-1.585,1.9-2.345,2.88-0.7.89-.643,1.33,0.224,2.11h0Z" transform="translate(-345 -1811)"/>
</svg>
