<svg xmlns="http://www.w3.org/2000/svg" width="46" height="63" viewBox="0 0 46 63">
  <metadata><?xpacket begin="﻿" id="W5M0MpCehiHzreSzNTczkc9d"?>
<x:xmpmeta xmlns:x="adobe:ns:meta/" x:xmptk="Adobe XMP Core 5.6-c138 79.159824, 2016/09/14-01:09:01        ">
   <rdf:RDF xmlns:rdf="http://www.w3.org/1999/02/22-rdf-syntax-ns#">
      <rdf:Description rdf:about=""/>
   </rdf:RDF>
</x:xmpmeta>
                                                                                                    
                                                                                                    
                                                                                                    
                                                                                                    
                                                                                                    
                                                                                                    
                                                                                                    
                                                                                                    
                                                                                                    
                                                                                                    
                                                                                                    
                                                                                                    
                                                                                                    
                                                                                                    
                                                                                                    
                                                                                                    
                                                                                                    
                                                                                                    
                                                                                                    
                                                                                                    
                           
<?xpacket end="w"?></metadata>
<defs>
    <style>
      .cls-1 {
        fill: #fff;
        fill-rule: evenodd;
      }
    </style>
  </defs>
  <path class="cls-1" d="M981.955,1742h-4.182a1.048,1.048,0,0,0-1.046,1.05v49.34a6.3,6.3,0,0,1-6.273,6.3l-13.59.01a6.3,6.3,0,0,1-6.273-6.31V1784h2.091a1.045,1.045,0,0,0,1-.74l1.059-3.46h-4.149a1.05,1.05,0,0,1,0-2.1h4.793l0.643-2.1h-5.436a1.05,1.05,0,0,1,0-2.1h6.079l0.644-2.1h-6.723a1.05,1.05,0,0,1,0-2.1h7.318v-2.1h-7.318a1.05,1.05,0,0,1,0-2.1h7.318v-9.45a1.048,1.048,0,0,0-1.045-1.05v-10.5a1.048,1.048,0,0,0-1.046-1.05h-3.136a1.048,1.048,0,0,0-1.046-1.05h-8.363a1.047,1.047,0,0,0-1.046,1.05h-3.136a1.048,1.048,0,0,0-1.046,1.05v10.5a1.047,1.047,0,0,0-1.045,1.05v9.45h7.318a1.05,1.05,0,0,1,0,2.1H937v2.1h7.318a1.05,1.05,0,0,1,0,2.1H937.6l0.643,2.1h6.08a1.05,1.05,0,0,1,0,2.1h-5.437l0.644,2.1h4.793a1.05,1.05,0,0,1,0,2.1h-4.15l1.06,3.46a1.044,1.044,0,0,0,1,.74h2.091v8.4a12.585,12.585,0,0,0,12.547,12.6l13.59-.01A12.592,12.592,0,0,0,983,1792.39v-49.34A1.048,1.048,0,0,0,981.955,1742Zm-29.273,9.45v-6.3h2.091v9.45h-4.182v-2.1h1.045A1.048,1.048,0,0,0,952.682,1751.45Zm-8.364-7.35h6.273v6.3h-1.046a1.047,1.047,0,0,0-1.045,1.05v3.15h-2.091v-3.15a1.048,1.048,0,0,0-1.045-1.05h-1.046v-6.3Zm-4.182,1.05h2.091v6.3a1.047,1.047,0,0,0,1.046,1.05h1.045v2.1h-4.182v-9.45Zm7.318,16.8a6.289,6.289,0,0,1-6.178-5.25h2.129a4.178,4.178,0,0,0,8.1,0h2.128A6.29,6.29,0,0,1,947.454,1761.95Z" transform="translate(-937 -1742)"/>
</svg>
