<svg xmlns="http://www.w3.org/2000/svg" width="69" height="69" viewBox="0 0 69 69">
  <metadata><?xpacket begin="﻿" id="W5M0MpCehiHzreSzNTczkc9d"?>
<x:xmpmeta xmlns:x="adobe:ns:meta/" x:xmptk="Adobe XMP Core 5.6-c138 79.159824, 2016/09/14-01:09:01        ">
   <rdf:RDF xmlns:rdf="http://www.w3.org/1999/02/22-rdf-syntax-ns#">
      <rdf:Description rdf:about=""/>
   </rdf:RDF>
</x:xmpmeta>
                                                                                                    
                                                                                                    
                                                                                                    
                                                                                                    
                                                                                                    
                                                                                                    
                                                                                                    
                                                                                                    
                                                                                                    
                                                                                                    
                                                                                                    
                                                                                                    
                                                                                                    
                                                                                                    
                                                                                                    
                                                                                                    
                                                                                                    
                                                                                                    
                                                                                                    
                                                                                                    
                           
<?xpacket end="w"?></metadata>
<defs>
    <style>
      .cls-1 {
        fill: #fff;
        fill-rule: evenodd;
      }
    </style>
  </defs>
  <path id="Forma_1" data-name="Forma 1" class="cls-1" d="M1513.14,670.052a12.645,12.645,0,1,0-12.65,12.632A12.553,12.553,0,0,0,1513.14,670.052Zm-22.35.155a9.705,9.705,0,1,1,9.7,9.689A9.683,9.683,0,0,1,1490.79,670.207Zm44.11,48.878-11.33-32.3a1.4,1.4,0,0,0-1.32-1.029h-9.34c3.12-5.914,5.67-11.927,5.67-15.715a18.085,18.085,0,1,0-36.17.169c0,3.76,2.52,9.689,5.61,15.561h-9.28a1.415,1.415,0,0,0-1.33,1.028l-11.32,32.289a1.49,1.49,0,0,0,.14,1.323,1.837,1.837,0,0,0,1.19.592h66.15a1.86,1.86,0,0,0,1.19-.592A1.426,1.426,0,0,0,1534.9,719.085Zm-49.54-49.033a15.135,15.135,0,0,1,30.27,0c0,8.224-13.73,28.544-15.14,30.684C1499.13,698.582,1485.36,679.487,1485.36,670.052Zm-15.89,48.005,10.3-29.36h9.84c4.42,7.914,10.88,17.32,10.88,17.32s6.33-9.252,10.89-17.32h9.86l10.29,29.36h-62.06Z" transform="translate(-1466 -652)"/>
</svg>
