<svg xmlns="http://www.w3.org/2000/svg" xmlns:xlink="http://www.w3.org/1999/xlink" width="251" height="253" viewBox="0 0 251 253">
  <metadata><?xpacket begin="﻿" id="W5M0MpCehiHzreSzNTczkc9d"?>
<x:xmpmeta xmlns:x="adobe:ns:meta/" x:xmptk="Adobe XMP Core 5.6-c138 79.159824, 2016/09/14-01:09:01        ">
   <rdf:RDF xmlns:rdf="http://www.w3.org/1999/02/22-rdf-syntax-ns#">
      <rdf:Description rdf:about=""/>
   </rdf:RDF>
</x:xmpmeta>
                                                                                                    
                                                                                                    
                                                                                                    
                                                                                                    
                                                                                                    
                                                                                                    
                                                                                                    
                                                                                                    
                                                                                                    
                                                                                                    
                                                                                                    
                                                                                                    
                                                                                                    
                                                                                                    
                                                                                                    
                                                                                                    
                                                                                                    
                                                                                                    
                                                                                                    
                                                                                                    
                           
<?xpacket end="w"?></metadata>
<defs>
    <style>
      .cls-1 {
        fill-opacity: 0.8;
        fill-rule: evenodd;
        filter: url(#filter);
      }
    </style>
    <filter id="filter" x="837" y="2711" width="251" height="253" filterUnits="userSpaceOnUse">
      <feGaussianBlur result="blur" stdDeviation="11.667" in="SourceAlpha"/>
      <feComposite result="composite"/>
      <feComposite result="composite-2"/>
      <feComposite result="composite-3"/>
      <feFlood result="flood" flood-color="#fff" flood-opacity="0.04"/>
      <feComposite result="composite-4" operator="in" in2="composite-3"/>
      <feBlend result="blend" mode="screen" in2="SourceGraphic"/>
      <feBlend result="blend-2" in="SourceGraphic"/>
      <feFlood result="flood-2" flood-color="#fff"/>
      <feComposite result="composite-5" operator="in" in2="SourceGraphic"/>
      <feBlend result="blend-3" in2="blend-2"/>
    </filter>
  </defs>
  <path id="Play" class="cls-1" d="M1008.17,2834.52l-65.257-45a2.953,2.953,0,0,0-3.058-.17,3.007,3.007,0,0,0-1.579,2.65v90a3,3,0,0,0,1.582,2.65,2.93,2.93,0,0,0,3.055-.17l65.257-45A3.016,3.016,0,0,0,1008.17,2834.52Zm-63.961,41.8v-78.64L1001.24,2837Zm17.8-129.32c-49.071,0-88.992,40.37-88.992,90s39.921,90,88.992,90S1051,2886.63,1051,2837,1011.08,2747,962.008,2747Zm0,174c-45.8,0-83.06-37.68-83.06-84s37.261-84,83.06-84,83.062,37.68,83.062,84S1007.81,2921,962.008,2921Z" transform="translate(-837 -2711)"/>
</svg>
