<?xml version="1.0" encoding="utf-8"?>
<!-- Generator: Adobe Illustrator 21.0.0, SVG Export Plug-In . SVG Version: 6.00 Build 0)  -->
<svg version="1.1" id="Слой_1" xmlns="http://www.w3.org/2000/svg" xmlns:xlink="http://www.w3.org/1999/xlink" x="0px" y="0px"
	 viewBox="0 0 94.9 95" style="enable-background:new 0 0 94.9 95;" xml:space="preserve">
<style type="text/css">
	.st0{fill:url(#SVGID_1_);}
	.st1{fill:url(#SVGID_2_);}
	.st2{fill:url(#SVGID_3_);}
</style>
<g>
	<linearGradient id="SVGID_1_" gradientUnits="userSpaceOnUse" x1="6.1262" y1="7.0969" x2="94.9595" y2="98.4302">
		<stop  offset="0" style="stop-color:#63B34A"/>
		<stop  offset="1" style="stop-color:#306220"/>
	</linearGradient>
	<path class="st0" d="M54.1,48.1c1.6-1.9,2.3-4.4,1.9-6.9c-0.7-4.8-5.1-8.1-9.9-7.4c-4.3,0.6-7.5,4.3-7.5,8.7c0,2,0.7,4,2,5.6
		L37.7,56C37,58,38,60.2,40,61c4.7,1.8,9.9,1.8,14.7,0c2-0.8,3-3,2.3-5L54.1,48.1z M42.8,56.7l3-8.4c0.4-1,0-2.1-0.8-2.8
		c-1.6-1.3-1.9-3.7-0.6-5.3s3.7-1.9,5.3-0.6s1.9,3.7,0.6,5.3c-0.2,0.2-0.4,0.4-0.6,0.6c-0.8,0.7-1.2,1.8-0.8,2.8l3,8.4
		C48.9,57.6,45.8,57.6,42.8,56.7z"/>
	<linearGradient id="SVGID_2_" gradientUnits="userSpaceOnUse" x1="7.1933" y1="6.0589" x2="96.0266" y2="97.3923">
		<stop  offset="0" style="stop-color:#63B34A"/>
		<stop  offset="1" style="stop-color:#306220"/>
	</linearGradient>
	<path class="st1" d="M88.6,37.1l-5.2-0.9c-0.7-2.1-1.5-4.1-2.5-6l3-4.3c2.2-3.1,1.8-7.2-0.9-9.9l-4-4c-2.6-2.6-6.8-3-9.8-0.9
		l-4.3,3c-1.9-1-3.9-1.8-6-2.5L58,6.4C57.3,2.7,54.1,0,50.4,0h-5.7c-3.7,0-6.9,2.7-7.6,6.4l-0.9,5.2c-2.1,0.7-4.1,1.5-6,2.5l-4.3-3
		c-3.1-2.2-7.2-1.8-9.9,0.9l-4,4c-2.6,2.6-3,6.8-0.9,9.9l3,4.3c-1,1.9-1.8,3.9-2.5,6L6.4,37C2.7,37.7,0,40.9,0,44.6v5.7
		c0,3.7,2.7,6.9,6.4,7.6l5.2,0.9c0.7,2.1,1.5,4.1,2.5,6l-3,4.3c-2.2,3.1-1.8,7.2,0.9,9.8l4,4c2.6,2.6,6.8,3,9.9,0.9l4.3-3
		c1.9,1,3.9,1.8,6,2.5l0.9,5.2c0.6,3.7,3.8,6.4,7.6,6.4h5.7c3.7,0,6.9-2.7,7.6-6.4l0.9-5.2c2.1-0.7,4.1-1.5,6-2.5l4.3,3
		c3.1,2.2,7.2,1.8,9.8-0.9l4-4c2.6-2.6,3-6.8,0.9-9.8l-3-4.3c1-1.9,1.8-3.9,2.5-6l5.2-0.9c3.7-0.6,6.4-3.8,6.4-7.6v-5.7
		C94.9,40.9,92.3,37.7,88.6,37.1z M90,50.4c0,1.3-0.9,2.4-2.2,2.7L81,54.2c-1,0.2-1.7,0.9-2,1.8c-0.7,2.7-1.8,5.4-3.2,7.8
		c-0.5,0.8-0.4,1.9,0.1,2.7l3.9,5.6c0.8,1.1,0.6,2.5-0.3,3.4l-4,4c-0.9,0.9-2.4,1.1-3.4,0.3l-5.6-3.9c-0.8-0.6-1.8-0.6-2.7-0.1
		c-2.4,1.4-5.1,2.5-7.8,3.2c-0.9,0.3-1.6,1-1.8,2L53,87.8c-0.2,1.3-1.3,2.2-2.7,2.2h-5.7c-1.3,0-2.4-0.9-2.7-2.2L40.8,81
		c-0.2-1-0.9-1.7-1.8-2c-2.7-0.7-5.4-1.8-7.8-3.2c-0.8-0.5-1.9-0.4-2.7,0.1l-5.6,3.9c-1.1,0.8-2.5,0.6-3.4-0.3l-4-4
		c-0.9-0.9-1.1-2.4-0.3-3.4l3.9-5.6c0.6-0.8,0.6-1.8,0.1-2.7c-1.4-2.4-2.5-5.1-3.2-7.8c-0.3-0.9-1-1.6-2-1.8L7.2,53
		C5.9,52.8,5,51.7,5,50.4v-5.7c0-1.3,0.9-2.4,2.2-2.6l6.7-1.2c1-0.2,1.7-0.9,2-1.8c0.7-2.7,1.8-5.4,3.2-7.8c0.5-0.9,0.4-1.9-0.1-2.7
		l-3.9-5.6c-0.8-1.1-0.6-2.5,0.3-3.4l4-4c0.9-0.9,2.4-1.1,3.4-0.3l5.6,3.9c0.8,0.6,1.8,0.6,2.7,0.1c2.4-1.4,5.1-2.5,7.8-3.2
		c0.9-0.3,1.6-1,1.8-2L42,7.2C42.2,5.9,43.3,5,44.6,5h5.7c1.3,0,2.4,0.9,2.6,2.2l1.2,6.7c0.2,1,0.9,1.7,1.8,2
		c2.7,0.7,5.4,1.8,7.8,3.2c0.9,0.5,1.9,0.4,2.7-0.1l5.6-3.9c1.1-0.8,2.5-0.6,3.4,0.3l4,4c0.9,0.9,1.1,2.4,0.3,3.4l-3.9,5.6
		c-0.6,0.8-0.6,1.8-0.1,2.7c1.4,2.4,2.5,5.1,3.2,7.8c0.3,0.9,1,1.6,2,1.8l6.7,1.2c1.3,0.2,2.2,1.3,2.2,2.7L90,50.4z"/>
	<linearGradient id="SVGID_3_" gradientUnits="userSpaceOnUse" x1="7.1015" y1="6.1482" x2="95.9348" y2="97.4816">
		<stop  offset="0" style="stop-color:#63B34A"/>
		<stop  offset="1" style="stop-color:#306220"/>
	</linearGradient>
	<path class="st2" d="M47.3,21.3c-14.5,0-26.2,11.8-26.2,26.2s11.8,26.3,26.2,26.3S73.6,62,73.6,47.5C73.6,33,61.8,21.3,47.3,21.3z
		 M47.3,68.8c-11.7,0-21.2-9.5-21.2-21.3s9.5-21.2,21.2-21.2s21.3,9.5,21.3,21.2C68.6,59.2,59.1,68.7,47.3,68.8z"/>
</g>
</svg>
