<?xml version="1.0" encoding="utf-8"?>
<!-- Generator: Adobe Illustrator 21.0.0, SVG Export Plug-In . SVG Version: 6.00 Build 0)  -->
<svg version="1.1" id="Слой_1" xmlns="http://www.w3.org/2000/svg" xmlns:xlink="http://www.w3.org/1999/xlink" x="0px" y="0px"
	 viewBox="0 0 98 97.5" style="enable-background:new 0 0 98 97.5;" xml:space="preserve">
<style type="text/css">
	.st0{fill:url(#SVGID_1_);}
	.st1{fill:url(#SVGID_2_);}
	.st2{fill:url(#SVGID_3_);}
	.st3{fill:url(#SVGID_4_);}
	.st4{fill:url(#SVGID_5_);}
	.st5{fill:url(#SVGID_6_);}
</style>
<g>
	<linearGradient id="SVGID_1_" gradientUnits="userSpaceOnUse" x1="-9.4773" y1="5.4293" x2="91.0227" y2="117.1793">
		<stop  offset="0" style="stop-color:#63B34A"/>
		<stop  offset="1" style="stop-color:#306220"/>
	</linearGradient>
	<path class="st0" d="M89.8,82.5l-23.6-9.9v-6.1c3-4.2,4.9-9,5.5-14.1c3.5-3,5.6-7.4,5.6-12c0-3-1.7-5.7-4.4-7v-9.6
		c0-9.1-4.6-12.4-9.3-14.9c-3.9-2-7.9-3.7-12.1-5.1V2.5C51.5,1.1,50.4,0,49,0s-2.5,1.1-2.5,2.5v1.3c-2,0.7-5.6,2.1-11.9,4.9
		c-4.7,2.1-9.5,5.6-9.5,15v9.6c-2.7,1.3-4.4,4-4.4,7c0,4.7,2.2,9.2,5.8,12.2c0.7,4.9,2.5,9.6,5.3,13.6v6.4l-23.6,10
		C3.2,84.6-0.1,89.6,0,95c0,1.4,1.1,2.5,2.5,2.5l0,0C3.9,97.5,5,96.4,5,95c0,0,0,0,0,0c0-3.4,2-6.6,5.2-7.9l23.3-9.8
		C37.2,82.1,42.9,85,49,85h0c6.1,0,11.8-2.8,15.5-7.7l23.3,9.8C91,88.4,93,91.5,93,95c0,1.4,1.1,2.5,2.5,2.5l0,0l0,0
		c1.4,0,2.5-1.1,2.5-2.5c0,0,0,0,0,0C98.1,89.6,94.8,84.6,89.8,82.5z M36.7,13.2c4-1.9,8.1-3.6,12.3-5c4.2,1.3,8.3,3,12.2,4.9
		c3.9,2.2,6.7,4.2,6.7,10.6v6.1L67,29.3c-11.1-6.6-24.9-6.6-36,0l-0.9,0.5v-6.1C30.1,17.5,32.5,15.1,36.7,13.2z M66.6,34.9l-1.3,2.5
		c-0.6,1.2-2,1.6-3.2,1c-4-2.2-8.5-3.4-13.1-3.5c-4.6,0.1-9.1,1.4-13.1,3.5c-0.6,0.3-1.2,0.3-1.8,0.2c-0.6-0.2-1-0.6-1.3-1.1
		l-1.2-2.5l2.1-1.3c9.5-5.7,21.4-5.7,30.9,0L66.6,34.9z M49,80L49,80c-4.9,0-9.4-2.4-12.1-6.5V66c0-1-0.3-1.9-0.9-2.7
		c-2.6-3.7-4.1-8-4.6-12.5c-0.1-0.7-0.5-1.4-1-1.8c-2.9-2-4.6-5.3-4.6-8.8c0-1.1,0.6-2.1,1.6-2.5l0.9,1.8c0.9,1.7,2.4,3,4.2,3.6
		c1.9,0.6,3.9,0.4,5.6-0.5c3.3-1.8,7.1-2.8,10.9-3c3.8,0.2,7.5,1.2,10.9,3c3.6,1.9,8,0.5,9.9-3.1l0.9-1.8c1,0.4,1.6,1.4,1.6,2.5
		c0,3.4-1.7,6.7-4.4,8.7c-0.6,0.4-0.9,1-1,1.7c-0.5,4.6-2.2,9-4.8,12.8c-0.6,0.8-0.9,1.7-0.9,2.7v7.2C58.4,77.5,53.9,80,49,80z"/>
	<linearGradient id="SVGID_2_" gradientUnits="userSpaceOnUse" x1="43.5311" y1="-42.2427" x2="144.0311" y2="69.5073">
		<stop  offset="0" style="stop-color:#63B34A"/>
		<stop  offset="1" style="stop-color:#306220"/>
	</linearGradient>
	<path class="st1" d="M81.6,1.6c-1.4,0-2.5,1.1-2.5,2.5c0,1.4,1.1,2.5,2.5,2.5H87c0.9,0,1.6,0.7,1.6,1.6v5.4c0,1.4,1.1,2.5,2.5,2.5
		s2.5-1.1,2.5-2.5V8.2c0-3.6-3-6.6-6.6-6.6H81.6z"/>
	<linearGradient id="SVGID_3_" gradientUnits="userSpaceOnUse" x1="0.4977" y1="-3.5415" x2="100.9977" y2="108.2085">
		<stop  offset="0" style="stop-color:#63B34A"/>
		<stop  offset="1" style="stop-color:#306220"/>
	</linearGradient>
	<path class="st2" d="M6.9,16.1c1.4,0,2.5-1.1,2.5-2.5V8.2c0-0.9,0.7-1.6,1.6-1.6l0,0h5.4c1.4,0,2.5-1.1,2.5-2.5s-1.1-2.5-2.5-2.5
		H11c-3.6,0-6.6,3-6.6,6.6v5.4C4.4,15,5.5,16.1,6.9,16.1z"/>
	<linearGradient id="SVGID_4_" gradientUnits="userSpaceOnUse" x1="-28.2593" y1="22.3205" x2="72.2407" y2="134.0705">
		<stop  offset="0" style="stop-color:#63B34A"/>
		<stop  offset="1" style="stop-color:#306220"/>
	</linearGradient>
	<path class="st3" d="M11,70.5h5.4c1.4,0,2.5-1.1,2.5-2.5s-1.1-2.5-2.5-2.5H11c-0.9,0-1.6-0.7-1.6-1.6v-5.4c0-1.4-1.1-2.5-2.5-2.5
		s-2.5,1.1-2.5,2.5v5.4C4.4,67.5,7.4,70.5,11,70.5z"/>
	<linearGradient id="SVGID_5_" gradientUnits="userSpaceOnUse" x1="14.7688" y1="-16.376" x2="115.2688" y2="95.374">
		<stop  offset="0" style="stop-color:#63B34A"/>
		<stop  offset="1" style="stop-color:#306220"/>
	</linearGradient>
	<path class="st4" d="M91.1,56c-1.4,0-2.5,1.1-2.5,2.5v5.4c0,0.9-0.7,1.6-1.6,1.6h-5.4c-1.4,0-2.5,1.1-2.5,2.5s1.1,2.5,2.5,2.5H87
		c3.6,0,6.6-3,6.6-6.6v-5.4C93.6,57.1,92.5,56,91.1,56z"/>
	<linearGradient id="SVGID_6_" gradientUnits="userSpaceOnUse" x1="17.1598" y1="-18.5262" x2="117.6598" y2="93.2238">
		<stop  offset="0" style="stop-color:#63B34A"/>
		<stop  offset="1" style="stop-color:#306220"/>
	</linearGradient>
	<path class="st5" d="M55,14.8c-3.6-2.4-8.4-2.4-12,0c-1.2,0.7-1.6,2.2-0.9,3.4c0.7,1.2,2.2,1.6,3.4,0.9c0.1,0,0.1-0.1,0.2-0.1
		c2-1.3,4.6-1.3,6.6,0c1.1,0.8,2.7,0.6,3.5-0.5c0.8-1.1,0.6-2.7-0.5-3.5C55.2,14.9,55.1,14.8,55,14.8z"/>
</g>
</svg>
